{"news":[{"fecha":"Dec 03, 2024","enlace":"https://www.abc.com.py/internacionales/2024/12/04/filipinas-y-china-se-acusan-mutuamente-de-choque-con-canones-de-agua-en-arrecife-disputado/","enlaceFoto":"","titulo":"Filipinas y China se acusan mutuamente de choque con cañones de agua en arrecife disputado","resumen":"Los guardacostas filipinos afirmaron haber realizado esta mañana una \"patrulla marítima rutinaria\" para apoyar a embarcaciones pesqueras en Bajo De Masinloc, como denomina Manila al arrecife bajo el c","contenidoFoto":null,"contentTypeFoto":null},{"fecha":"Nov 28, 2024","enlace":"https://www.abc.com.py/internacionales/2024/11/28/china-despliega-patrullas-de-vigilancia-cerca-del-arrecife-disputado-con-filipinas/","enlaceFoto":"","titulo":"China despliega patrullas de vigilancia cerca del arrecife disputado con Filipinas","resumen":"El Comando del Teatro de Operaciones del Sur del Ejército Popular de Liberación (EPL, Ejército chino) informó en su cuenta oficial en la red social Wechat de que las operaciones incluyeron la vigilanc","contenidoFoto":null,"contentTypeFoto":null}],"totalResults":20,"totalPages":10,"pageSize":2,"currentPage":1}